<svg width="13" height="14" viewBox="0 0 13 14" fill="none" xmlns="http://www.w3.org/2000/svg">
<path d="M6.91495 6.60824L1.91691 0.121307C1.85818 0.0437501 1.76617 0 1.67024 0H0.156934C0.025767 0 -0.0466684 0.153125 0.0335977 0.256534L5.22936 7L0.0335977 13.7435C0.0155218 13.7669 0.00430598 13.7951 0.0012326 13.8247C-0.00184078 13.8543 0.00335249 13.8842 0.0162183 13.9109C0.0290842 13.9377 0.0491035 13.9603 0.0739874 13.976C0.0988714 13.9917 0.127615 14.0001 0.156934 14H1.67024C1.76617 14 1.85818 13.9543 1.91691 13.8787L6.91495 7.39375C7.0931 7.16108 7.0931 6.83892 6.91495 6.60824ZM12.8664 6.60824L7.86835 0.121307C7.80962 0.0437501 7.71761 0 7.62168 0H6.10837C5.9772 0 5.90477 0.153125 5.98504 0.256534L11.1808 7L5.98504 13.7435C5.96696 13.7669 5.95574 13.7951 5.95267 13.8247C5.9496 13.8543 5.95479 13.8842 5.96766 13.9109C5.98052 13.9377 6.00054 13.9603 6.02542 13.976C6.05031 13.9917 6.07905 14.0001 6.10837 14H7.62168C7.71761 14 7.80962 13.9543 7.86835 13.8787L12.8664 7.39375C13.0445 7.16108 13.0445 6.83892 12.8664 6.60824Z" fill="#19052B"/>
</svg>
