{
    "name": "Branch",
    "alias": "branch",
    "description": "",
    "keywords": ["branch", "branchs"],
    "order": 0,
    "providers": [
        "Modules\\Branch\\Providers\\BranchServiceProvider"
    ],
    "aliases": {},
    "files": [],
    "requires": []
}
